{
  "project_info": {
    "project_number": "863291956764",
    "firebase_url": "https://smart-attendance-91e88.firebaseio.com",
    "project_id": "smart-attendance-91e88",
    "storage_bucket": "smart-attendance-91e88.appspot.com"
  },
  "client": [
    {
      "client_info": {
        "mobilesdk_app_id": "1:863291956764:android:6860561ff2941bb6",
        "android_client_info": {
          "package_name": "com.wobot.smartattendance"
        }
      },
      "oauth_client": [
        {
          "client_id": "863291956764-ms8g7op5heviicsf34227tepmt2tu45q.apps.googleusercontent.com",
          "client_type": 1,
          "android_info": {
            "package_name": "com.wobot.smartattendance",
            "certificate_hash": "6592edbe1d5b4266af25540ea7408a11c37aa092"
          }
        },
        {
          "client_id": "863291956764-hnfk29oggq1reuvhp77kgtekhjarf18h.apps.googleusercontent.com",
          "client_type": 3
        }
      ],
      "api_key": [
        {
          "current_key": "AIzaSyBdApMNbmf6qi41v1-sVzBUt_NaFzMNsgg"
        }
      ],
      "services": {
        "analytics_service": {
          "status": 1
        },
        "appinvite_service": {
          "status": 2,
          "other_platform_oauth_client": [
            {
              "client_id": "863291956764-hnfk29oggq1reuvhp77kgtekhjarf18h.apps.googleusercontent.com",
              "client_type": 3
            }
          ]
        },
        "ads_service": {
          "status": 2
        }
      }
    }
  ],
  "configuration_version": "1"
}